[ 2019-06-17T00:48:18+08:00 ] 124.251.57.67 /
INFO: [ app_init ] --START--
INFO: Run Behavior\BuildLiteBehavior [ RunTime:0.000020s ]
INFO: [ app_init ] --END-- [ RunTime:0.000419s ]
INFO: [ app_begin ] --START--
INFO: Run Behavior\ReadHtmlCacheBehavior [ RunTime:0.000432s ]
INFO: Run Behavior\CheckLangBehavior [ RunTime:0.000253s ]
INFO: [ app_begin ] --END-- [ RunTime:0.000796s ]
INFO: [ view_parse ] --START--
INFO: [ template_filter ] --START--
INFO: Run Behavior\ContentReplaceBehavior [ RunTime:0.000155s ]
INFO: [ template_filter ] --END-- [ RunTime:0.000253s ]
INFO: Run Behavior\ParseTemplateBehavior [ RunTime:0.018652s ]
INFO: [ view_parse ] --END-- [ RunTime:0.018731s ]
INFO: [ view_filter ] --START--
INFO: Run Behavior\WriteHtmlCacheBehavior [ RunTime:0.000218s ]
INFO: [ view_filter ] --END-- [ RunTime:0.000288s ]
INFO: [ app_end ] --START--
INFO: Run Behavior\ShowPageTraceBehavior [ RunTime:0.000559s ]
INFO: [ app_end ] --END-- [ RunTime:0.000637s ]

[ 2019-06-17T01:06:47+08:00 ] 123.125.71.29 /robots.txt
INFO: [ app_init ] --START--
INFO: Run Behavior\BuildLiteBehavior [ RunTime:0.000020s ]
INFO: [ app_init ] --END-- [ RunTime:0.000388s ]
INFO: [ app_begin ] --START--
INFO: Run Behavior\ReadHtmlCacheBehavior [ RunTime:0.000387s ]
INFO: Run Behavior\CheckLangBehavior [ RunTime:0.000249s ]
INFO: [ app_begin ] --END-- [ RunTime:0.000764s ]
ERR: 无法加载控制器:Robots

[ 2019-06-17T01:11:29+08:00 ] 123.125.71.25 /robots.txt
INFO: [ app_init ] --START--
INFO: Run Behavior\BuildLiteBehavior [ RunTime:0.000019s ]
INFO: [ app_init ] --END-- [ RunTime:0.000375s ]
INFO: [ app_begin ] --START--
INFO: Run Behavior\ReadHtmlCacheBehavior [ RunTime:0.000412s ]
INFO: Run Behavior\CheckLangBehavior [ RunTime:0.000252s ]
INFO: [ app_begin ] --END-- [ RunTime:0.000777s ]
ERR: 无法加载控制器:Robots

[ 2019-06-17T05:01:36+08:00 ] 37.187.196.64 /wp-login.php
INFO: [ app_init ] --START--
INFO: Run Behavior\BuildLiteBehavior [ RunTime:0.000020s ]
INFO: [ app_init ] --END-- [ RunTime:0.000390s ]
INFO: [ app_begin ] --START--
INFO: Run Behavior\ReadHtmlCacheBehavior [ RunTime:0.000415s ]
INFO: Run Behavior\CheckLangBehavior [ RunTime:0.000252s ]
INFO: [ app_begin ] --END-- [ RunTime:0.000779s ]
ERR: 无法加载控制器:Wp-login

[ 2019-06-17T05:16:07+08:00 ] 39.104.202.198 /wp-config.php.backup
INFO: [ app_init ] --START--
INFO: Run Behavior\BuildLiteBehavior [ RunTime:0.000021s ]
INFO: [ app_init ] --END-- [ RunTime:0.000395s ]
INFO: [ app_begin ] --START--
INFO: Run Behavior\ReadHtmlCacheBehavior [ RunTime:0.000388s ]
INFO: Run Behavior\CheckLangBehavior [ RunTime:0.000248s ]
INFO: [ app_begin ] --END-- [ RunTime:0.000746s ]
ERR: 无法加载控制器:Wp-config.php

[ 2019-06-17T05:56:31+08:00 ] 47.98.34.250 /
INFO: [ app_init ] --START--
INFO: Run Behavior\BuildLiteBehavior [ RunTime:0.000019s ]
INFO: [ app_init ] --END-- [ RunTime:0.000361s ]
INFO: [ app_begin ] --START--
INFO: Run Behavior\ReadHtmlCacheBehavior [ RunTime:0.000380s ]
INFO: Run Behavior\CheckLangBehavior [ RunTime:0.000349s ]
INFO: [ app_begin ] --END-- [ RunTime:0.000847s ]
INFO: [ view_parse ] --START--
INFO: [ template_filter ] --START--
INFO: Run Behavior\ContentReplaceBehavior [ RunTime:0.000110s ]
INFO: [ template_filter ] --END-- [ RunTime:0.000181s ]
INFO: Run Behavior\ParseTemplateBehavior [ RunTime:0.012969s ]
INFO: [ view_parse ] --END-- [ RunTime:0.013047s ]
INFO: [ view_filter ] --START--
INFO: Run Behavior\WriteHtmlCacheBehavior [ RunTime:0.000175s ]
INFO: [ view_filter ] --END-- [ RunTime:0.000225s ]
INFO: [ app_end ] --START--
INFO: Run Behavior\ShowPageTraceBehavior [ RunTime:0.000370s ]
INFO: [ app_end ] --END-- [ RunTime:0.000429s ]

[ 2019-06-17T06:05:33+08:00 ] 101.132.144.145 /
INFO: [ app_init ] --START--
INFO: Run Behavior\BuildLiteBehavior [ RunTime:0.000020s ]
INFO: [ app_init ] --END-- [ RunTime:0.000370s ]
INFO: [ app_begin ] --START--
INFO: Run Behavior\ReadHtmlCacheBehavior [ RunTime:0.000387s ]
INFO: Run Behavior\CheckLangBehavior [ RunTime:0.000270s ]
INFO: [ app_begin ] --END-- [ RunTime:0.000765s ]
INFO: [ view_parse ] --START--
INFO: [ template_filter ] --START--
INFO: Run Behavior\ContentReplaceBehavior [ RunTime:0.000098s ]
INFO: [ template_filter ] --END-- [ RunTime:0.000162s ]
INFO: Run Behavior\ParseTemplateBehavior [ RunTime:0.013152s ]
INFO: [ view_parse ] --END-- [ RunTime:0.013220s ]
INFO: [ view_filter ] --START--
INFO: Run Behavior\WriteHtmlCacheBehavior [ RunTime:0.000154s ]
INFO: [ view_filter ] --END-- [ RunTime:0.000203s ]
INFO: [ app_end ] --START--
INFO: Run Behavior\ShowPageTraceBehavior [ RunTime:0.000391s ]
INFO: [ app_end ] --END-- [ RunTime:0.000453s ]

[ 2019-06-17T06:59:19+08:00 ] 191.101.95.11 /
INFO: [ app_init ] --START--
INFO: Run Behavior\BuildLiteBehavior [ RunTime:0.000019s ]
INFO: [ app_init ] --END-- [ RunTime:0.000364s ]
INFO: [ app_begin ] --START--
INFO: Run Behavior\ReadHtmlCacheBehavior [ RunTime:0.000382s ]
INFO: Run Behavior\CheckLangBehavior [ RunTime:0.000248s ]
INFO: [ app_begin ] --END-- [ RunTime:0.000741s ]
INFO: [ view_parse ] --START--
INFO: [ template_filter ] --START--
INFO: Run Behavior\ContentReplaceBehavior [ RunTime:0.000116s ]
INFO: [ template_filter ] --END-- [ RunTime:0.000188s ]
INFO: Run Behavior\ParseTemplateBehavior [ RunTime:0.016262s ]
INFO: [ view_parse ] --END-- [ RunTime:0.016335s ]
INFO: [ view_filter ] --START--
INFO: Run Behavior\WriteHtmlCacheBehavior [ RunTime:0.000174s ]
INFO: [ view_filter ] --END-- [ RunTime:0.000225s ]
INFO: [ app_end ] --START--
INFO: Run Behavior\ShowPageTraceBehavior [ RunTime:0.000378s ]
INFO: [ app_end ] --END-- [ RunTime:0.000490s ]

[ 2019-06-17T07:45:32+08:00 ] 106.11.158.109 /
INFO: [ app_init ] --START--
INFO: Run Behavior\BuildLiteBehavior [ RunTime:0.000019s ]
INFO: [ app_init ] --END-- [ RunTime:0.000368s ]
INFO: [ app_begin ] --START--
INFO: Run Behavior\ReadHtmlCacheBehavior [ RunTime:0.000381s ]
INFO: Run Behavior\CheckLangBehavior [ RunTime:0.000267s ]
INFO: [ app_begin ] --END-- [ RunTime:0.000762s ]
INFO: [ view_parse ] --START--
INFO: [ template_filter ] --START--
INFO: Run Behavior\ContentReplaceBehavior [ RunTime:0.000120s ]
INFO: [ template_filter ] --END-- [ RunTime:0.000191s ]
INFO: Run Behavior\ParseTemplateBehavior [ RunTime:0.014928s ]
INFO: [ view_parse ] --END-- [ RunTime:0.014993s ]
INFO: [ view_filter ] --START--
INFO: Run Behavior\WriteHtmlCacheBehavior [ RunTime:0.000156s ]
INFO: [ view_filter ] --END-- [ RunTime:0.000205s ]
INFO: [ app_end ] --START--
INFO: Run Behavior\ShowPageTraceBehavior [ RunTime:0.000365s ]
INFO: [ app_end ] --END-- [ RunTime:0.000422s ]

[ 2019-06-17T07:59:33+08:00 ] 164.132.202.92 /
INFO: [ app_init ] --START--
INFO: Run Behavior\BuildLiteBehavior [ RunTime:0.000019s ]
INFO: [ app_init ] --END-- [ RunTime:0.000367s ]
INFO: [ app_begin ] --START--
INFO: Run Behavior\ReadHtmlCacheBehavior [ RunTime:0.000381s ]
INFO: Run Behavior\CheckLangBehavior [ RunTime:0.000272s ]
INFO: [ app_begin ] --END-- [ RunTime:0.000766s ]
INFO: [ view_parse ] --START--
INFO: [ template_filter ] --START--
INFO: Run Behavior\ContentReplaceBehavior [ RunTime:0.000129s ]
INFO: [ template_filter ] --END-- [ RunTime:0.000197s ]
INFO: Run Behavior\ParseTemplateBehavior [ RunTime:0.014825s ]
INFO: [ view_parse ] --END-- [ RunTime:0.014890s ]
INFO: [ view_filter ] --START--
INFO: Run Behavior\WriteHtmlCacheBehavior [ RunTime:0.000154s ]
INFO: [ view_filter ] --END-- [ RunTime:0.000206s ]
INFO: [ app_end ] --START--
INFO: Run Behavior\ShowPageTraceBehavior [ RunTime:0.000368s ]
INFO: [ app_end ] --END-- [ RunTime:0.000424s ]

[ 2019-06-17T09:18:54+08:00 ] 54.36.149.79 /robots.txt
INFO: [ app_init ] --START--
INFO: Run Behavior\BuildLiteBehavior [ RunTime:0.000019s ]
INFO: [ app_init ] --END-- [ RunTime:0.000363s ]
INFO: [ app_begin ] --START--
INFO: Run Behavior\ReadHtmlCacheBehavior [ RunTime:0.000383s ]
INFO: Run Behavior\CheckLangBehavior [ RunTime:0.000253s ]
INFO: [ app_begin ] --END-- [ RunTime:0.000747s ]
ERR: 无法加载控制器:Robots

[ 2019-06-17T09:18:56+08:00 ] 54.36.149.104 /Product/index/pid/16
INFO: [ app_init ] --START--
INFO: Run Behavior\BuildLiteBehavior [ RunTime:0.000019s ]
INFO: [ app_init ] --END-- [ RunTime:0.000388s ]
INFO: [ app_begin ] --START--
INFO: Run Behavior\ReadHtmlCacheBehavior [ RunTime:0.000405s ]
INFO: Run Behavior\CheckLangBehavior [ RunTime:0.000256s ]
INFO: [ app_begin ] --END-- [ RunTime:0.000773s ]
SQL: SHOW COLUMNS FROM `tp_product` [ RunTime:0.0006s ]
SQL: SELECT * FROM `tp_product` WHERE ( type2=16 ) ORDER BY id asc  [ RunTime:0.0002s ]
INFO: [ view_parse ] --START--
INFO: [ template_filter ] --START--
INFO: Run Behavior\ContentReplaceBehavior [ RunTime:0.000110s ]
INFO: [ template_filter ] --END-- [ RunTime:0.000172s ]
NOTIC: [8] Use of undefined constant type - assumed 'type' /www/webhost/sxruide/wwwroot/Application/Runtime/Cache/Home/3458861da0342b1f9413030055ee3fb6.php 第 84 行.
NOTIC: [8] Use of undefined constant type - assumed 'type' /www/webhost/sxruide/wwwroot/Application/Runtime/Cache/Home/3458861da0342b1f9413030055ee3fb6.php 第 84 行.
NOTIC: [8] Use of undefined constant type - assumed 'type' /www/webhost/sxruide/wwwroot/Application/Runtime/Cache/Home/3458861da0342b1f9413030055ee3fb6.php 第 84 行.
NOTIC: [8] Use of undefined constant type - assumed 'type' /www/webhost/sxruide/wwwroot/Application/Runtime/Cache/Home/3458861da0342b1f9413030055ee3fb6.php 第 84 行.
NOTIC: [8] Use of undefined constant type - assumed 'type' /www/webhost/sxruide/wwwroot/Application/Runtime/Cache/Home/3458861da0342b1f9413030055ee3fb6.php 第 84 行.
NOTIC: [8] Use of undefined constant type - assumed 'type' /www/webhost/sxruide/wwwroot/Application/Runtime/Cache/Home/3458861da0342b1f9413030055ee3fb6.php 第 84 行.
NOTIC: [8] Use of undefined constant type - assumed 'type' /www/webhost/sxruide/wwwroot/Application/Runtime/Cache/Home/3458861da0342b1f9413030055ee3fb6.php 第 84 行.
NOTIC: [8] Use of undefined constant type - assumed 'type' /www/webhost/sxruide/wwwroot/Application/Runtime/Cache/Home/3458861da0342b1f9413030055ee3fb6.php 第 84 行.
NOTIC: [8] Use of undefined constant type - assumed 'type' /www/webhost/sxruide/wwwroot/Application/Runtime/Cache/Home/3458861da0342b1f9413030055ee3fb6.php 第 84 行.
NOTIC: [8] Use of undefined constant type - assumed 'type' /www/webhost/sxruide/wwwroot/Application/Runtime/Cache/Home/3458861da0342b1f9413030055ee3fb6.php 第 90 行.
NOTIC: [8] Use of undefined constant type - assumed 'type' /www/webhost/sxruide/wwwroot/Application/Runtime/Cache/Home/3458861da0342b1f9413030055ee3fb6.php 第 90 行.
NOTIC: [8] Use of undefined constant type - assumed 'type' /www/webhost/sxruide/wwwroot/Application/Runtime/Cache/Home/3458861da0342b1f9413030055ee3fb6.php 第 90 行.
NOTIC: [8] Use of undefined constant type - assumed 'type' /www/webhost/sxruide/wwwroot/Application/Runtime/Cache/Home/3458861da0342b1f9413030055ee3fb6.php 第 90 行.
NOTIC: [8] Use of undefined constant type - assumed 'type' /www/webhost/sxruide/wwwroot/Application/Runtime/Cache/Home/3458861da0342b1f9413030055ee3fb6.php 第 90 行.
NOTIC: [8] Use of undefined constant type - assumed 'type' /www/webhost/sxruide/wwwroot/Application/Runtime/Cache/Home/3458861da0342b1f9413030055ee3fb6.php 第 90 行.
NOTIC: [8] Use of undefined constant type - assumed 'type' /www/webhost/sxruide/wwwroot/Application/Runtime/Cache/Home/3458861da0342b1f9413030055ee3fb6.php 第 90 行.
NOTIC: [8] Use of undefined constant type - assumed 'type' /www/webhost/sxruide/wwwroot/Application/Runtime/Cache/Home/3458861da0342b1f9413030055ee3fb6.php 第 90 行.
NOTIC: [8] Use of undefined constant type - assumed 'type' /www/webhost/sxruide/wwwroot/Application/Runtime/Cache/Home/3458861da0342b1f9413030055ee3fb6.php 第 90 行.
NOTIC: [8] Use of undefined constant type - assumed 'type' /www/webhost/sxruide/wwwroot/Application/Runtime/Cache/Home/3458861da0342b1f9413030055ee3fb6.php 第 96 行.
NOTIC: [8] Use of undefined constant type - assumed 'type' /www/webhost/sxruide/wwwroot/Application/Runtime/Cache/Home/3458861da0342b1f9413030055ee3fb6.php 第 96 行.
NOTIC: [8] Use of undefined constant type - assumed 'type' /www/webhost/sxruide/wwwroot/Application/Runtime/Cache/Home/3458861da0342b1f9413030055ee3fb6.php 第 96 行.
NOTIC: [8] Use of undefined constant type - assumed 'type' /www/webhost/sxruide/wwwroot/Application/Runtime/Cache/Home/3458861da0342b1f9413030055ee3fb6.php 第 96 行.
NOTIC: [8] Use of undefined constant type - assumed 'type' /www/webhost/sxruide/wwwroot/Application/Runtime/Cache/Home/3458861da0342b1f9413030055ee3fb6.php 第 96 行.
NOTIC: [8] Use of undefined constant type - assumed 'type' /www/webhost/sxruide/wwwroot/Application/Runtime/Cache/Home/3458861da0342b1f9413030055ee3fb6.php 第 96 行.
NOTIC: [8] Use of undefined constant type - assumed 'type' /www/webhost/sxruide/wwwroot/Application/Runtime/Cache/Home/3458861da0342b1f9413030055ee3fb6.php 第 96 行.
NOTIC: [8] Use of undefined constant type - assumed 'type' /www/webhost/sxruide/wwwroot/Application/Runtime/Cache/Home/3458861da0342b1f9413030055ee3fb6.php 第 96 行.
NOTIC: [8] Use of undefined constant type - assumed 'type' /www/webhost/sxruide/wwwroot/Application/Runtime/Cache/Home/3458861da0342b1f9413030055ee3fb6.php 第 96 行.
INFO: Run Behavior\ParseTemplateBehavior [ RunTime:0.016551s ]
INFO: [ view_parse ] --END-- [ RunTime:0.016616s ]
INFO: [ view_filter ] --START--
INFO: Run Behavior\WriteHtmlCacheBehavior [ RunTime:0.000193s ]
INFO: [ view_filter ] --END-- [ RunTime:0.000245s ]
INFO: [ app_end ] --START--
INFO: Run Behavior\ShowPageTraceBehavior [ RunTime:0.000444s ]
INFO: [ app_end ] --END-- [ RunTime:0.000509s ]

[ 2019-06-17T10:24:06+08:00 ] 180.101.52.227 /
INFO: [ app_init ] --START--
INFO: Run Behavior\BuildLiteBehavior [ RunTime:0.000019s ]
INFO: [ app_init ] --END-- [ RunTime:0.000398s ]
INFO: [ app_begin ] --START--
INFO: Run Behavior\ReadHtmlCacheBehavior [ RunTime:0.000424s ]
INFO: Run Behavior\CheckLangBehavior [ RunTime:0.000249s ]
INFO: [ app_begin ] --END-- [ RunTime:0.000786s ]
INFO: [ view_parse ] --START--
INFO: [ template_filter ] --START--
INFO: Run Behavior\ContentReplaceBehavior [ RunTime:0.000129s ]
INFO: [ template_filter ] --END-- [ RunTime:0.000215s ]
INFO: Run Behavior\ParseTemplateBehavior [ RunTime:0.015811s ]
INFO: [ view_parse ] --END-- [ RunTime:0.015877s ]
INFO: [ view_filter ] --START--
INFO: Run Behavior\WriteHtmlCacheBehavior [ RunTime:0.000173s ]
INFO: [ view_filter ] --END-- [ RunTime:0.000223s ]
INFO: [ app_end ] --START--
INFO: Run Behavior\ShowPageTraceBehavior [ RunTime:0.000465s ]
INFO: [ app_end ] --END-- [ RunTime:0.000538s ]

[ 2019-06-17T10:29:03+08:00 ] 42.156.137.124 /Product/index/pid/15
INFO: [ app_init ] --START--
INFO: Run Behavior\BuildLiteBehavior [ RunTime:0.000019s ]
INFO: [ app_init ] --END-- [ RunTime:0.000384s ]
INFO: [ app_begin ] --START--
INFO: Run Behavior\ReadHtmlCacheBehavior [ RunTime:0.000425s ]
INFO: Run Behavior\CheckLangBehavior [ RunTime:0.000250s ]
INFO: [ app_begin ] --END-- [ RunTime:0.000786s ]
SQL: SHOW COLUMNS FROM `tp_product` [ RunTime:0.0007s ]
SQL: SELECT * FROM `tp_product` WHERE ( type2=15 ) ORDER BY id asc  [ RunTime:0.0002s ]
INFO: [ view_parse ] --START--
INFO: [ template_filter ] --START--
INFO: Run Behavior\ContentReplaceBehavior [ RunTime:0.000115s ]
INFO: [ template_filter ] --END-- [ RunTime:0.000179s ]
NOTIC: [8] Use of undefined constant type - assumed 'type' /www/webhost/sxruide/wwwroot/Application/Runtime/Cache/Home/3458861da0342b1f9413030055ee3fb6.php 第 84 行.
NOTIC: [8] Use of undefined constant type - assumed 'type' /www/webhost/sxruide/wwwroot/Application/Runtime/Cache/Home/3458861da0342b1f9413030055ee3fb6.php 第 84 行.
NOTIC: [8] Use of undefined constant type - assumed 'type' /www/webhost/sxruide/wwwroot/Application/Runtime/Cache/Home/3458861da0342b1f9413030055ee3fb6.php 第 84 行.
NOTIC: [8] Use of undefined constant type - assumed 'type' /www/webhost/sxruide/wwwroot/Application/Runtime/Cache/Home/3458861da0342b1f9413030055ee3fb6.php 第 84 行.
NOTIC: [8] Use of undefined constant type - assumed 'type' /www/webhost/sxruide/wwwroot/Application/Runtime/Cache/Home/3458861da0342b1f9413030055ee3fb6.php 第 84 行.
NOTIC: [8] Use of undefined constant type - assumed 'type' /www/webhost/sxruide/wwwroot/Application/Runtime/Cache/Home/3458861da0342b1f9413030055ee3fb6.php 第 84 行.
NOTIC: [8] Use of undefined constant type - assumed 'type' /www/webhost/sxruide/wwwroot/Application/Runtime/Cache/Home/3458861da0342b1f9413030055ee3fb6.php 第 84 行.
NOTIC: [8] Use of undefined constant type - assumed 'type' /www/webhost/sxruide/wwwroot/Application/Runtime/Cache/Home/3458861da0342b1f9413030055ee3fb6.php 第 84 行.
NOTIC: [8] Use of undefined constant type - assumed 'type' /www/webhost/sxruide/wwwroot/Application/Runtime/Cache/Home/3458861da0342b1f9413030055ee3fb6.php 第 84 行.
NOTIC: [8] Use of undefined constant type - assumed 'type' /www/webhost/sxruide/wwwroot/Application/Runtime/Cache/Home/3458861da0342b1f9413030055ee3fb6.php 第 90 行.
NOTIC: [8] Use of undefined constant type - assumed 'type' /www/webhost/sxruide/wwwroot/Application/Runtime/Cache/Home/3458861da0342b1f9413030055ee3fb6.php 第 90 行.
NOTIC: [8] Use of undefined constant type - assumed 'type' /www/webhost/sxruide/wwwroot/Application/Runtime/Cache/Home/3458861da0342b1f9413030055ee3fb6.php 第 90 行.
NOTIC: [8] Use of undefined constant type - assumed 'type' /www/webhost/sxruide/wwwroot/Application/Runtime/Cache/Home/3458861da0342b1f9413030055ee3fb6.php 第 90 行.
NOTIC: [8] Use of undefined constant type - assumed 'type' /www/webhost/sxruide/wwwroot/Application/Runtime/Cache/Home/3458861da0342b1f9413030055ee3fb6.php 第 90 行.
NOTIC: [8] Use of undefined constant type - assumed 'type' /www/webhost/sxruide/wwwroot/Application/Runtime/Cache/Home/3458861da0342b1f9413030055ee3fb6.php 第 90 行.
NOTIC: [8] Use of undefined constant type - assumed 'type' /www/webhost/sxruide/wwwroot/Application/Runtime/Cache/Home/3458861da0342b1f9413030055ee3fb6.php 第 90 行.
NOTIC: [8] Use of undefined constant type - assumed 'type' /www/webhost/sxruide/wwwroot/Application/Runtime/Cache/Home/3458861da0342b1f9413030055ee3fb6.php 第 90 行.
NOTIC: [8] Use of undefined constant type - assumed 'type' /www/webhost/sxruide/wwwroot/Application/Runtime/Cache/Home/3458861da0342b1f9413030055ee3fb6.php 第 90 行.
NOTIC: [8] Use of undefined constant type - assumed 'type' /www/webhost/sxruide/wwwroot/Application/Runtime/Cache/Home/3458861da0342b1f9413030055ee3fb6.php 第 96 行.
NOTIC: [8] Use of undefined constant type - assumed 'type' /www/webhost/sxruide/wwwroot/Application/Runtime/Cache/Home/3458861da0342b1f9413030055ee3fb6.php 第 96 行.
NOTIC: [8] Use of undefined constant type - assumed 'type' /www/webhost/sxruide/wwwroot/Application/Runtime/Cache/Home/3458861da0342b1f9413030055ee3fb6.php 第 96 行.
NOTIC: [8] Use of undefined constant type - assumed 'type' /www/webhost/sxruide/wwwroot/Application/Runtime/Cache/Home/3458861da0342b1f9413030055ee3fb6.php 第 96 行.
NOTIC: [8] Use of undefined constant type - assumed 'type' /www/webhost/sxruide/wwwroot/Application/Runtime/Cache/Home/3458861da0342b1f9413030055ee3fb6.php 第 96 行.
NOTIC: [8] Use of undefined constant type - assumed 'type' /www/webhost/sxruide/wwwroot/Application/Runtime/Cache/Home/3458861da0342b1f9413030055ee3fb6.php 第 96 行.
NOTIC: [8] Use of undefined constant type - assumed 'type' /www/webhost/sxruide/wwwroot/Application/Runtime/Cache/Home/3458861da0342b1f9413030055ee3fb6.php 第 96 行.
NOTIC: [8] Use of undefined constant type - assumed 'type' /www/webhost/sxruide/wwwroot/Application/Runtime/Cache/Home/3458861da0342b1f9413030055ee3fb6.php 第 96 行.
NOTIC: [8] Use of undefined constant type - assumed 'type' /www/webhost/sxruide/wwwroot/Application/Runtime/Cache/Home/3458861da0342b1f9413030055ee3fb6.php 第 96 行.
INFO: Run Behavior\ParseTemplateBehavior [ RunTime:0.015646s ]
INFO: [ view_parse ] --END-- [ RunTime:0.015707s ]
INFO: [ view_filter ] --START--
INFO: Run Behavior\WriteHtmlCacheBehavior [ RunTime:0.000155s ]
INFO: [ view_filter ] --END-- [ RunTime:0.000204s ]
INFO: [ app_end ] --START--
INFO: Run Behavior\ShowPageTraceBehavior [ RunTime:0.000361s ]
INFO: [ app_end ] --END-- [ RunTime:0.000416s ]

[ 2019-06-17T12:12:13+08:00 ] 42.156.139.3 /
INFO: [ app_init ] --START--
INFO: Run Behavior\BuildLiteBehavior [ RunTime:0.000020s ]
INFO: [ app_init ] --END-- [ RunTime:0.000364s ]
INFO: [ app_begin ] --START--
INFO: Run Behavior\ReadHtmlCacheBehavior [ RunTime:0.000379s ]
INFO: Run Behavior\CheckLangBehavior [ RunTime:0.000272s ]
INFO: [ app_begin ] --END-- [ RunTime:0.000763s ]
INFO: [ view_parse ] --START--
INFO: [ template_filter ] --START--
INFO: Run Behavior\ContentReplaceBehavior [ RunTime:0.000119s ]
INFO: [ template_filter ] --END-- [ RunTime:0.000186s ]
INFO: Run Behavior\ParseTemplateBehavior [ RunTime:0.015099s ]
INFO: [ view_parse ] --END-- [ RunTime:0.015165s ]
INFO: [ view_filter ] --START--
INFO: Run Behavior\WriteHtmlCacheBehavior [ RunTime:0.000154s ]
INFO: [ view_filter ] --END-- [ RunTime:0.000204s ]
INFO: [ app_end ] --START--
INFO: Run Behavior\ShowPageTraceBehavior [ RunTime:0.000385s ]
INFO: [ app_end ] --END-- [ RunTime:0.000441s ]

[ 2019-06-17T14:23:25+08:00 ] 42.120.161.95 /Tech/index
INFO: [ app_init ] --START--
INFO: Run Behavior\BuildLiteBehavior [ RunTime:0.000020s ]
INFO: [ app_init ] --END-- [ RunTime:0.000373s ]
INFO: [ app_begin ] --START--
INFO: Run Behavior\ReadHtmlCacheBehavior [ RunTime:0.000417s ]
INFO: Run Behavior\CheckLangBehavior [ RunTime:0.000253s ]
INFO: [ app_begin ] --END-- [ RunTime:0.000783s ]
INFO: [ view_parse ] --START--
INFO: [ template_filter ] --START--
INFO: Run Behavior\ContentReplaceBehavior [ RunTime:0.000147s ]
INFO: [ template_filter ] --END-- [ RunTime:0.000221s ]
NOTIC: [8] Use of undefined constant type - assumed 'type' /www/webhost/sxruide/wwwroot/Application/Runtime/Cache/Home/100cf57094a455fdc55644dc884744bf.php 第 87 行.
NOTIC: [8] Use of undefined constant type - assumed 'type' /www/webhost/sxruide/wwwroot/Application/Runtime/Cache/Home/100cf57094a455fdc55644dc884744bf.php 第 87 行.
NOTIC: [8] Use of undefined constant type - assumed 'type' /www/webhost/sxruide/wwwroot/Application/Runtime/Cache/Home/100cf57094a455fdc55644dc884744bf.php 第 87 行.
NOTIC: [8] Use of undefined constant type - assumed 'type' /www/webhost/sxruide/wwwroot/Application/Runtime/Cache/Home/100cf57094a455fdc55644dc884744bf.php 第 87 行.
NOTIC: [8] Use of undefined constant type - assumed 'type' /www/webhost/sxruide/wwwroot/Application/Runtime/Cache/Home/100cf57094a455fdc55644dc884744bf.php 第 87 行.
NOTIC: [8] Use of undefined constant type - assumed 'type' /www/webhost/sxruide/wwwroot/Application/Runtime/Cache/Home/100cf57094a455fdc55644dc884744bf.php 第 87 行.
NOTIC: [8] Use of undefined constant type - assumed 'type' /www/webhost/sxruide/wwwroot/Application/Runtime/Cache/Home/100cf57094a455fdc55644dc884744bf.php 第 87 行.
NOTIC: [8] Use of undefined constant type - assumed 'type' /www/webhost/sxruide/wwwroot/Application/Runtime/Cache/Home/100cf57094a455fdc55644dc884744bf.php 第 87 行.
NOTIC: [8] Use of undefined constant type - assumed 'type' /www/webhost/sxruide/wwwroot/Application/Runtime/Cache/Home/100cf57094a455fdc55644dc884744bf.php 第 87 行.
NOTIC: [8] Use of undefined constant type - assumed 'type' /www/webhost/sxruide/wwwroot/Application/Runtime/Cache/Home/100cf57094a455fdc55644dc884744bf.php 第 87 行.
NOTIC: [8] Use of undefined constant type - assumed 'type' /www/webhost/sxruide/wwwroot/Application/Runtime/Cache/Home/100cf57094a455fdc55644dc884744bf.php 第 87 行.
NOTIC: [8] Use of undefined constant type - assumed 'type' /www/webhost/sxruide/wwwroot/Application/Runtime/Cache/Home/100cf57094a455fdc55644dc884744bf.php 第 87 行.
NOTIC: [8] Use of undefined constant type - assumed 'type' /www/webhost/sxruide/wwwroot/Application/Runtime/Cache/Home/100cf57094a455fdc55644dc884744bf.php 第 87 行.
NOTIC: [8] Use of undefined constant type - assumed 'type' /www/webhost/sxruide/wwwroot/Application/Runtime/Cache/Home/100cf57094a455fdc55644dc884744bf.php 第 87 行.
NOTIC: [8] Use of undefined constant type - assumed 'type' /www/webhost/sxruide/wwwroot/Application/Runtime/Cache/Home/100cf57094a455fdc55644dc884744bf.php 第 87 行.
NOTIC: [8] Use of undefined constant type - assumed 'type' /www/webhost/sxruide/wwwroot/Application/Runtime/Cache/Home/100cf57094a455fdc55644dc884744bf.php 第 100 行.
NOTIC: [8] Use of undefined constant type - assumed 'type' /www/webhost/sxruide/wwwroot/Application/Runtime/Cache/Home/100cf57094a455fdc55644dc884744bf.php 第 100 行.
NOTIC: [8] Use of undefined constant type - assumed 'type' /www/webhost/sxruide/wwwroot/Application/Runtime/Cache/Home/100cf57094a455fdc55644dc884744bf.php 第 100 行.
NOTIC: [8] Use of undefined constant type - assumed 'type' /www/webhost/sxruide/wwwroot/Application/Runtime/Cache/Home/100cf57094a455fdc55644dc884744bf.php 第 100 行.
NOTIC: [8] Use of undefined constant type - assumed 'type' /www/webhost/sxruide/wwwroot/Application/Runtime/Cache/Home/100cf57094a455fdc55644dc884744bf.php 第 100 行.
NOTIC: [8] Use of undefined constant type - assumed 'type' /www/webhost/sxruide/wwwroot/Application/Runtime/Cache/Home/100cf57094a455fdc55644dc884744bf.php 第 100 行.
NOTIC: [8] Use of undefined constant type - assumed 'type' /www/webhost/sxruide/wwwroot/Application/Runtime/Cache/Home/100cf57094a455fdc55644dc884744bf.php 第 100 行.
NOTIC: [8] Use of undefined constant type - assumed 'type' /www/webhost/sxruide/wwwroot/Application/Runtime/Cache/Home/100cf57094a455fdc55644dc884744bf.php 第 100 行.
NOTIC: [8] Use of undefined constant type - assumed 'type' /www/webhost/sxruide/wwwroot/Application/Runtime/Cache/Home/100cf57094a455fdc55644dc884744bf.php 第 100 行.
NOTIC: [8] Use of undefined constant type - assumed 'type' /www/webhost/sxruide/wwwroot/Application/Runtime/Cache/Home/100cf57094a455fdc55644dc884744bf.php 第 100 行.
NOTIC: [8] Use of undefined constant type - assumed 'type' /www/webhost/sxruide/wwwroot/Application/Runtime/Cache/Home/100cf57094a455fdc55644dc884744bf.php 第 100 行.
NOTIC: [8] Use of undefined constant type - assumed 'type' /www/webhost/sxruide/wwwroot/Application/Runtime/Cache/Home/100cf57094a455fdc55644dc884744bf.php 第 100 行.
NOTIC: [8] Use of undefined constant type - assumed 'type' /www/webhost/sxruide/wwwroot/Application/Runtime/Cache/Home/100cf57094a455fdc55644dc884744bf.php 第 100 行.
NOTIC: [8] Use of undefined constant type - assumed 'type' /www/webhost/sxruide/wwwroot/Application/Runtime/Cache/Home/100cf57094a455fdc55644dc884744bf.php 第 100 行.
NOTIC: [8] Use of undefined constant type - assumed 'type' /www/webhost/sxruide/wwwroot/Application/Runtime/Cache/Home/100cf57094a455fdc55644dc884744bf.php 第 100 行.
NOTIC: [8] Use of undefined constant type - assumed 'type' /www/webhost/sxruide/wwwroot/Application/Runtime/Cache/Home/100cf57094a455fdc55644dc884744bf.php 第 113 行.
NOTIC: [8] Use of undefined constant type - assumed 'type' /www/webhost/sxruide/wwwroot/Application/Runtime/Cache/Home/100cf57094a455fdc55644dc884744bf.php 第 113 行.
NOTIC: [8] Use of undefined constant type - assumed 'type' /www/webhost/sxruide/wwwroot/Application/Runtime/Cache/Home/100cf57094a455fdc55644dc884744bf.php 第 113 行.
NOTIC: [8] Use of undefined constant type - assumed 'type' /www/webhost/sxruide/wwwroot/Application/Runtime/Cache/Home/100cf57094a455fdc55644dc884744bf.php 第 113 行.
NOTIC: [8] Use of undefined constant type - assumed 'type' /www/webhost/sxruide/wwwroot/Application/Runtime/Cache/Home/100cf57094a455fdc55644dc884744bf.php 第 113 行.
NOTIC: [8] Use of undefined constant type - assumed 'type' /www/webhost/sxruide/wwwroot/Application/Runtime/Cache/Home/100cf57094a455fdc55644dc884744bf.php 第 113 行.
NOTIC: [8] Use of undefined constant type - assumed 'type' /www/webhost/sxruide/wwwroot/Application/Runtime/Cache/Home/100cf57094a455fdc55644dc884744bf.php 第 113 行.
NOTIC: [8] Use of undefined constant type - assumed 'type' /www/webhost/sxruide/wwwroot/Application/Runtime/Cache/Home/100cf57094a455fdc55644dc884744bf.php 第 113 行.
NOTIC: [8] Use of undefined constant type - assumed 'type' /www/webhost/sxruide/wwwroot/Application/Runtime/Cache/Home/100cf57094a455fdc55644dc884744bf.php 第 113 行.
NOTIC: [8] Use of undefined constant type - assumed 'type' /www/webhost/sxruide/wwwroot/Application/Runtime/Cache/Home/100cf57094a455fdc55644dc884744bf.php 第 113 行.
NOTIC: [8] Use of undefined constant type - assumed 'type' /www/webhost/sxruide/wwwroot/Application/Runtime/Cache/Home/100cf57094a455fdc55644dc884744bf.php 第 113 行.
NOTIC: [8] Use of undefined constant type - assumed 'type' /www/webhost/sxruide/wwwroot/Application/Runtime/Cache/Home/100cf57094a455fdc55644dc884744bf.php 第 113 行.
NOTIC: [8] Use of undefined constant type - assumed 'type' /www/webhost/sxruide/wwwroot/Application/Runtime/Cache/Home/100cf57094a455fdc55644dc884744bf.php 第 113 行.
NOTIC: [8] Use of undefined constant type - assumed 'type' /www/webhost/sxruide/wwwroot/Application/Runtime/Cache/Home/100cf57094a455fdc55644dc884744bf.php 第 113 行.
NOTIC: [8] Use of undefined constant type - assumed 'type' /www/webhost/sxruide/wwwroot/Application/Runtime/Cache/Home/100cf57094a455fdc55644dc884744bf.php 第 113 行.
INFO: Run Behavior\ParseTemplateBehavior [ RunTime:0.014168s ]
INFO: [ view_parse ] --END-- [ RunTime:0.014228s ]
INFO: [ view_filter ] --START--
INFO: Run Behavior\WriteHtmlCacheBehavior [ RunTime:0.000159s ]
INFO: [ view_filter ] --END-- [ RunTime:0.000208s ]
INFO: [ app_end ] --START--
INFO: Run Behavior\ShowPageTraceBehavior [ RunTime:0.000357s ]
INFO: [ app_end ] --END-- [ RunTime:0.000418s ]

[ 2019-06-17T14:28:27+08:00 ] 220.181.108.83 /Field/index
INFO: [ app_init ] --START--
INFO: Run Behavior\BuildLiteBehavior [ RunTime:0.000019s ]
INFO: [ app_init ] --END-- [ RunTime:0.000365s ]
INFO: [ app_begin ] --START--
INFO: Run Behavior\ReadHtmlCacheBehavior [ RunTime:0.000420s ]
INFO: Run Behavior\CheckLangBehavior [ RunTime:0.000248s ]
INFO: [ app_begin ] --END-- [ RunTime:0.000781s ]
INFO: [ view_parse ] --START--
INFO: [ template_filter ] --START--
INFO: Run Behavior\ContentReplaceBehavior [ RunTime:0.000113s ]
INFO: [ template_filter ] --END-- [ RunTime:0.000183s ]
NOTIC: [8] Use of undefined constant type - assumed 'type' /www/webhost/sxruide/wwwroot/Application/Runtime/Cache/Home/45f8befd944496decaba6b81efba4f24.php 第 103 行.
NOTIC: [8] Use of undefined constant type - assumed 'type' /www/webhost/sxruide/wwwroot/Application/Runtime/Cache/Home/45f8befd944496decaba6b81efba4f24.php 第 103 行.
NOTIC: [8] Use of undefined constant type - assumed 'type' /www/webhost/sxruide/wwwroot/Application/Runtime/Cache/Home/45f8befd944496decaba6b81efba4f24.php 第 103 行.
NOTIC: [8] Use of undefined constant type - assumed 'type' /www/webhost/sxruide/wwwroot/Application/Runtime/Cache/Home/45f8befd944496decaba6b81efba4f24.php 第 103 行.
NOTIC: [8] Use of undefined constant type - assumed 'type' /www/webhost/sxruide/wwwroot/Application/Runtime/Cache/Home/45f8befd944496decaba6b81efba4f24.php 第 103 行.
NOTIC: [8] Use of undefined constant type - assumed 'type' /www/webhost/sxruide/wwwroot/Application/Runtime/Cache/Home/45f8befd944496decaba6b81efba4f24.php 第 103 行.
NOTIC: [8] Use of undefined constant type - assumed 'type' /www/webhost/sxruide/wwwroot/Application/Runtime/Cache/Home/45f8befd944496decaba6b81efba4f24.php 第 103 行.
NOTIC: [8] Use of undefined constant type - assumed 'type' /www/webhost/sxruide/wwwroot/Application/Runtime/Cache/Home/45f8befd944496decaba6b81efba4f24.php 第 103 行.
NOTIC: [8] Use of undefined constant type - assumed 'type' /www/webhost/sxruide/wwwroot/Application/Runtime/Cache/Home/45f8befd944496decaba6b81efba4f24.php 第 103 行.
NOTIC: [8] Use of undefined constant type - assumed 'type' /www/webhost/sxruide/wwwroot/Application/Runtime/Cache/Home/45f8befd944496decaba6b81efba4f24.php 第 103 行.
NOTIC: [8] Use of undefined constant type - assumed 'type' /www/webhost/sxruide/wwwroot/Application/Runtime/Cache/Home/45f8befd944496decaba6b81efba4f24.php 第 103 行.
NOTIC: [8] Use of undefined constant type - assumed 'type' /www/webhost/sxruide/wwwroot/Application/Runtime/Cache/Home/45f8befd944496decaba6b81efba4f24.php 第 103 行.
NOTIC: [8] Use of undefined constant type - assumed 'type' /www/webhost/sxruide/wwwroot/Application/Runtime/Cache/Home/45f8befd944496decaba6b81efba4f24.php 第 103 行.
NOTIC: [8] Use of undefined constant type - assumed 'type' /www/webhost/sxruide/wwwroot/Application/Runtime/Cache/Home/45f8befd944496decaba6b81efba4f24.php 第 103 行.
NOTIC: [8] Use of undefined constant type - assumed 'type' /www/webhost/sxruide/wwwroot/Application/Runtime/Cache/Home/45f8befd944496decaba6b81efba4f24.php 第 103 行.
NOTIC: [8] Use of undefined constant type - assumed 'type' /www/webhost/sxruide/wwwroot/Application/Runtime/Cache/Home/45f8befd944496decaba6b81efba4f24.php 第 103 行.
NOTIC: [8] Use of undefined constant type - assumed 'type' /www/webhost/sxruide/wwwroot/Application/Runtime/Cache/Home/45f8befd944496decaba6b81efba4f24.php 第 103 行.
NOTIC: [8] Use of undefined constant type - assumed 'type' /www/webhost/sxruide/wwwroot/Application/Runtime/Cache/Home/45f8befd944496decaba6b81efba4f24.php 第 103 行.
NOTIC: [8] Use of undefined constant type - assumed 'type' /www/webhost/sxruide/wwwroot/Application/Runtime/Cache/Home/45f8befd944496decaba6b81efba4f24.php 第 103 行.
NOTIC: [8] Use of undefined constant type - assumed 'type' /www/webhost/sxruide/wwwroot/Application/Runtime/Cache/Home/45f8befd944496decaba6b81efba4f24.php 第 103 行.
NOTIC: [8] Use of undefined constant type - assumed 'type' /www/webhost/sxruide/wwwroot/Application/Runtime/Cache/Home/45f8befd944496decaba6b81efba4f24.php 第 103 行.
NOTIC: [8] Use of undefined constant type - assumed 'type' /www/webhost/sxruide/wwwroot/Application/Runtime/Cache/Home/45f8befd944496decaba6b81efba4f24.php 第 103 行.
NOTIC: [8] Use of undefined constant type - assumed 'type' /www/webhost/sxruide/wwwroot/Application/Runtime/Cache/Home/45f8befd944496decaba6b81efba4f24.php 第 103 行.
NOTIC: [8] Use of undefined constant type - assumed 'type' /www/webhost/sxruide/wwwroot/Application/Runtime/Cache/Home/45f8befd944496decaba6b81efba4f24.php 第 103 行.
NOTIC: [8] Use of undefined constant type - assumed 'type' /www/webhost/sxruide/wwwroot/Application/Runtime/Cache/Home/45f8befd944496decaba6b81efba4f24.php 第 103 行.
NOTIC: [8] Use of undefined constant type - assumed 'type' /www/webhost/sxruide/wwwroot/Application/Runtime/Cache/Home/45f8befd944496decaba6b81efba4f24.php 第 103 行.
NOTIC: [8] Use of undefined constant type - assumed 'type' /www/webhost/sxruide/wwwroot/Application/Runtime/Cache/Home/45f8befd944496decaba6b81efba4f24.php 第 103 行.
NOTIC: [8] Use of undefined constant type - assumed 'type' /www/webhost/sxruide/wwwroot/Application/Runtime/Cache/Home/45f8befd944496decaba6b81efba4f24.php 第 103 行.
NOTIC: [8] Use of undefined constant type - assumed 'type' /www/webhost/sxruide/wwwroot/Application/Runtime/Cache/Home/45f8befd944496decaba6b81efba4f24.php 第 103 行.
NOTIC: [8] Use of undefined constant type - assumed 'type' /www/webhost/sxruide/wwwroot/Application/Runtime/Cache/Home/45f8befd944496decaba6b81efba4f24.php 第 103 行.
NOTIC: [8] Use of undefined constant type - assumed 'type' /www/webhost/sxruide/wwwroot/Application/Runtime/Cache/Home/45f8befd944496decaba6b81efba4f24.php 第 103 行.
NOTIC: [8] Use of undefined constant type - assumed 'type' /www/webhost/sxruide/wwwroot/Application/Runtime/Cache/Home/45f8befd944496decaba6b81efba4f24.php 第 103 行.
INFO: Run Behavior\ParseTemplateBehavior [ RunTime:0.013298s ]
INFO: [ view_parse ] --END-- [ RunTime:0.013359s ]
INFO: [ view_filter ] --START--
INFO: Run Behavior\WriteHtmlCacheBehavior [ RunTime:0.000154s ]
INFO: [ view_filter ] --END-- [ RunTime:0.000203s ]
INFO: [ app_end ] --START--
INFO: Run Behavior\ShowPageTraceBehavior [ RunTime:0.000447s ]
INFO: [ app_end ] --END-- [ RunTime:0.000519s ]

[ 2019-06-17T14:36:09+08:00 ] 120.92.88.152 /goodsshow.php?cid=12&tid=10&id=1
INFO: [ app_init ] --START--
INFO: Run Behavior\BuildLiteBehavior [ RunTime:0.000019s ]
INFO: [ app_init ] --END-- [ RunTime:0.000366s ]
INFO: [ app_begin ] --START--
INFO: Run Behavior\ReadHtmlCacheBehavior [ RunTime:0.000377s ]
INFO: Run Behavior\CheckLangBehavior [ RunTime:0.000253s ]
INFO: [ app_begin ] --END-- [ RunTime:0.000741s ]
ERR: 无法加载控制器:Goodsshow

[ 2019-06-17T15:45:05+08:00 ] 123.125.67.156 /robots.txt
INFO: [ app_init ] --START--
INFO: Run Behavior\BuildLiteBehavior [ RunTime:0.000019s ]
INFO: [ app_init ] --END-- [ RunTime:0.000381s ]
INFO: [ app_begin ] --START--
INFO: Run Behavior\ReadHtmlCacheBehavior [ RunTime:0.000403s ]
INFO: Run Behavior\CheckLangBehavior [ RunTime:0.000248s ]
INFO: [ app_begin ] --END-- [ RunTime:0.000762s ]
ERR: 无法加载控制器:Robots

[ 2019-06-17T15:49:56+08:00 ] 220.181.108.162 /robots.txt
INFO: [ app_init ] --START--
INFO: Run Behavior\BuildLiteBehavior [ RunTime:0.000019s ]
INFO: [ app_init ] --END-- [ RunTime:0.000415s ]
INFO: [ app_begin ] --START--
INFO: Run Behavior\ReadHtmlCacheBehavior [ RunTime:0.000388s ]
INFO: Run Behavior\CheckLangBehavior [ RunTime:0.000257s ]
INFO: [ app_begin ] --END-- [ RunTime:0.000757s ]
ERR: 无法加载控制器:Robots

[ 2019-06-17T16:39:27+08:00 ] 106.11.159.106 /Product/index/pid/6
INFO: [ app_init ] --START--
INFO: Run Behavior\BuildLiteBehavior [ RunTime:0.000019s ]
INFO: [ app_init ] --END-- [ RunTime:0.000367s ]
INFO: [ app_begin ] --START--
INFO: Run Behavior\ReadHtmlCacheBehavior [ RunTime:0.000410s ]
INFO: Run Behavior\CheckLangBehavior [ RunTime:0.000250s ]
INFO: [ app_begin ] --END-- [ RunTime:0.000773s ]
SQL: SHOW COLUMNS FROM `tp_product` [ RunTime:0.0007s ]
SQL: SELECT * FROM `tp_product` WHERE ( type2=6 ) ORDER BY id asc  [ RunTime:0.0002s ]
INFO: [ view_parse ] --START--
INFO: [ template_filter ] --START--
INFO: Run Behavior\ContentReplaceBehavior [ RunTime:0.000112s ]
INFO: [ template_filter ] --END-- [ RunTime:0.000172s ]
NOTIC: [8] Use of undefined constant type - assumed 'type' /www/webhost/sxruide/wwwroot/Application/Runtime/Cache/Home/3458861da0342b1f9413030055ee3fb6.php 第 84 行.
NOTIC: [8] Use of undefined constant type - assumed 'type' /www/webhost/sxruide/wwwroot/Application/Runtime/Cache/Home/3458861da0342b1f9413030055ee3fb6.php 第 84 行.
NOTIC: [8] Use of undefined constant type - assumed 'type' /www/webhost/sxruide/wwwroot/Application/Runtime/Cache/Home/3458861da0342b1f9413030055ee3fb6.php 第 84 行.
NOTIC: [8] Use of undefined constant type - assumed 'type' /www/webhost/sxruide/wwwroot/Application/Runtime/Cache/Home/3458861da0342b1f9413030055ee3fb6.php 第 84 行.
NOTIC: [8] Use of undefined constant type - assumed 'type' /www/webhost/sxruide/wwwroot/Application/Runtime/Cache/Home/3458861da0342b1f9413030055ee3fb6.php 第 84 行.
NOTIC: [8] Use of undefined constant type - assumed 'type' /www/webhost/sxruide/wwwroot/Application/Runtime/Cache/Home/3458861da0342b1f9413030055ee3fb6.php 第 84 行.
NOTIC: [8] Use of undefined constant type - assumed 'type' /www/webhost/sxruide/wwwroot/Application/Runtime/Cache/Home/3458861da0342b1f9413030055ee3fb6.php 第 84 行.
NOTIC: [8] Use of undefined constant type - assumed 'type' /www/webhost/sxruide/wwwroot/Application/Runtime/Cache/Home/3458861da0342b1f9413030055ee3fb6.php 第 84 行.
NOTIC: [8] Use of undefined constant type - assumed 'type' /www/webhost/sxruide/wwwroot/Application/Runtime/Cache/Home/3458861da0342b1f9413030055ee3fb6.php 第 84 行.
NOTIC: [8] Use of undefined constant type - assumed 'type' /www/webhost/sxruide/wwwroot/Application/Runtime/Cache/Home/3458861da0342b1f9413030055ee3fb6.php 第 90 行.
NOTIC: [8] Use of undefined constant type - assumed 'type' /www/webhost/sxruide/wwwroot/Application/Runtime/Cache/Home/3458861da0342b1f9413030055ee3fb6.php 第 90 行.
NOTIC: [8] Use of undefined constant type - assumed 'type' /www/webhost/sxruide/wwwroot/Application/Runtime/Cache/Home/3458861da0342b1f9413030055ee3fb6.php 第 90 行.
NOTIC: [8] Use of undefined constant type - assumed 'type' /www/webhost/sxruide/wwwroot/Application/Runtime/Cache/Home/3458861da0342b1f9413030055ee3fb6.php 第 90 行.
NOTIC: [8] Use of undefined constant type - assumed 'type' /www/webhost/sxruide/wwwroot/Application/Runtime/Cache/Home/3458861da0342b1f9413030055ee3fb6.php 第 90 行.
NOTIC: [8] Use of undefined constant type - assumed 'type' /www/webhost/sxruide/wwwroot/Application/Runtime/Cache/Home/3458861da0342b1f9413030055ee3fb6.php 第 90 行.
NOTIC: [8] Use of undefined constant type - assumed 'type' /www/webhost/sxruide/wwwroot/Application/Runtime/Cache/Home/3458861da0342b1f9413030055ee3fb6.php 第 90 行.
NOTIC: [8] Use of undefined constant type - assumed 'type' /www/webhost/sxruide/wwwroot/Application/Runtime/Cache/Home/3458861da0342b1f9413030055ee3fb6.php 第 90 行.
NOTIC: [8] Use of undefined constant type - assumed 'type' /www/webhost/sxruide/wwwroot/Application/Runtime/Cache/Home/3458861da0342b1f9413030055ee3fb6.php 第 90 行.
NOTIC: [8] Use of undefined constant type - assumed 'type' /www/webhost/sxruide/wwwroot/Application/Runtime/Cache/Home/3458861da0342b1f9413030055ee3fb6.php 第 96 行.
NOTIC: [8] Use of undefined constant type - assumed 'type' /www/webhost/sxruide/wwwroot/Application/Runtime/Cache/Home/3458861da0342b1f9413030055ee3fb6.php 第 96 行.
NOTIC: [8] Use of undefined constant type - assumed 'type' /www/webhost/sxruide/wwwroot/Application/Runtime/Cache/Home/3458861da0342b1f9413030055ee3fb6.php 第 96 行.
NOTIC: [8] Use of undefined constant type - assumed 'type' /www/webhost/sxruide/wwwroot/Application/Runtime/Cache/Home/3458861da0342b1f9413030055ee3fb6.php 第 96 行.
NOTIC: [8] Use of undefined constant type - assumed 'type' /www/webhost/sxruide/wwwroot/Application/Runtime/Cache/Home/3458861da0342b1f9413030055ee3fb6.php 第 96 行.
NOTIC: [8] Use of undefined constant type - assumed 'type' /www/webhost/sxruide/wwwroot/Application/Runtime/Cache/Home/3458861da0342b1f9413030055ee3fb6.php 第 96 行.
NOTIC: [8] Use of undefined constant type - assumed 'type' /www/webhost/sxruide/wwwroot/Application/Runtime/Cache/Home/3458861da0342b1f9413030055ee3fb6.php 第 96 行.
NOTIC: [8] Use of undefined constant type - assumed 'type' /www/webhost/sxruide/wwwroot/Application/Runtime/Cache/Home/3458861da0342b1f9413030055ee3fb6.php 第 96 行.
NOTIC: [8] Use of undefined constant type - assumed 'type' /www/webhost/sxruide/wwwroot/Application/Runtime/Cache/Home/3458861da0342b1f9413030055ee3fb6.php 第 96 行.
INFO: Run Behavior\ParseTemplateBehavior [ RunTime:0.016195s ]
INFO: [ view_parse ] --END-- [ RunTime:0.016256s ]
INFO: [ view_filter ] --START--
INFO: Run Behavior\WriteHtmlCacheBehavior [ RunTime:0.000221s ]
INFO: [ view_filter ] --END-- [ RunTime:0.000274s ]
INFO: [ app_end ] --START--
INFO: Run Behavior\ShowPageTraceBehavior [ RunTime:0.000587s ]
INFO: [ app_end ] --END-- [ RunTime:0.000697s ]

[ 2019-06-17T17:55:15+08:00 ] 222.141.18.52 /
INFO: [ app_init ] --START--
INFO: Run Behavior\BuildLiteBehavior [ RunTime:0.000019s ]
INFO: [ app_init ] --END-- [ RunTime:0.000359s ]
INFO: [ app_begin ] --START--
INFO: Run Behavior\ReadHtmlCacheBehavior [ RunTime:0.000377s ]
INFO: Run Behavior\CheckLangBehavior [ RunTime:0.000248s ]
INFO: [ app_begin ] --END-- [ RunTime:0.000734s ]
INFO: [ view_parse ] --START--
INFO: [ template_filter ] --START--
INFO: Run Behavior\ContentReplaceBehavior [ RunTime:0.000119s ]
INFO: [ template_filter ] --END-- [ RunTime:0.000203s ]
INFO: Run Behavior\ParseTemplateBehavior [ RunTime:0.015029s ]
INFO: [ view_parse ] --END-- [ RunTime:0.015092s ]
INFO: [ view_filter ] --START--
INFO: Run Behavior\WriteHtmlCacheBehavior [ RunTime:0.000171s ]
INFO: [ view_filter ] --END-- [ RunTime:0.000220s ]
INFO: [ app_end ] --START--
INFO: Run Behavior\ShowPageTraceBehavior [ RunTime:0.000367s ]
INFO: [ app_end ] --END-- [ RunTime:0.000428s ]

[ 2019-06-17T18:00:55+08:00 ] 106.11.159.104 /Tech/index
INFO: [ app_init ] --START--
INFO: Run Behavior\BuildLiteBehavior [ RunTime:0.000023s ]
INFO: [ app_init ] --END-- [ RunTime:0.000393s ]
INFO: [ app_begin ] --START--
INFO: Run Behavior\ReadHtmlCacheBehavior [ RunTime:0.000409s ]
INFO: Run Behavior\CheckLangBehavior [ RunTime:0.000397s ]
INFO: [ app_begin ] --END-- [ RunTime:0.000923s ]
INFO: [ view_parse ] --START--
INFO: [ template_filter ] --START--
INFO: Run Behavior\ContentReplaceBehavior [ RunTime:0.000131s ]
INFO: [ template_filter ] --END-- [ RunTime:0.000309s ]
NOTIC: [8] Use of undefined constant type - assumed 'type' /www/webhost/sxruide/wwwroot/Application/Runtime/Cache/Home/100cf57094a455fdc55644dc884744bf.php 第 87 行.
NOTIC: [8] Use of undefined constant type - assumed 'type' /www/webhost/sxruide/wwwroot/Application/Runtime/Cache/Home/100cf57094a455fdc55644dc884744bf.php 第 87 行.
NOTIC: [8] Use of undefined constant type - assumed 'type' /www/webhost/sxruide/wwwroot/Application/Runtime/Cache/Home/100cf57094a455fdc55644dc884744bf.php 第 87 行.
NOTIC: [8] Use of undefined constant type - assumed 'type' /www/webhost/sxruide/wwwroot/Application/Runtime/Cache/Home/100cf57094a455fdc55644dc884744bf.php 第 87 行.
NOTIC: [8] Use of undefined constant type - assumed 'type' /www/webhost/sxruide/wwwroot/Application/Runtime/Cache/Home/100cf57094a455fdc55644dc884744bf.php 第 87 行.
NOTIC: [8] Use of undefined constant type - assumed 'type' /www/webhost/sxruide/wwwroot/Application/Runtime/Cache/Home/100cf57094a455fdc55644dc884744bf.php 第 87 行.
NOTIC: [8] Use of undefined constant type - assumed 'type' /www/webhost/sxruide/wwwroot/Application/Runtime/Cache/Home/100cf57094a455fdc55644dc884744bf.php 第 87 行.
NOTIC: [8] Use of undefined constant type - assumed 'type' /www/webhost/sxruide/wwwroot/Application/Runtime/Cache/Home/100cf57094a455fdc55644dc884744bf.php 第 87 行.
NOTIC: [8] Use of undefined constant type - assumed 'type' /www/webhost/sxruide/wwwroot/Application/Runtime/Cache/Home/100cf57094a455fdc55644dc884744bf.php 第 87 行.
NOTIC: [8] Use of undefined constant type - assumed 'type' /www/webhost/sxruide/wwwroot/Application/Runtime/Cache/Home/100cf57094a455fdc55644dc884744bf.php 第 87 行.
NOTIC: [8] Use of undefined constant type - assumed 'type' /www/webhost/sxruide/wwwroot/Application/Runtime/Cache/Home/100cf57094a455fdc55644dc884744bf.php 第 87 行.
NOTIC: [8] Use of undefined constant type - assumed 'type' /www/webhost/sxruide/wwwroot/Application/Runtime/Cache/Home/100cf57094a455fdc55644dc884744bf.php 第 87 行.
NOTIC: [8] Use of undefined constant type - assumed 'type' /www/webhost/sxruide/wwwroot/Application/Runtime/Cache/Home/100cf57094a455fdc55644dc884744bf.php 第 87 行.
NOTIC: [8] Use of undefined constant type - assumed 'type' /www/webhost/sxruide/wwwroot/Application/Runtime/Cache/Home/100cf57094a455fdc55644dc884744bf.php 第 87 行.
NOTIC: [8] Use of undefined constant type - assumed 'type' /www/webhost/sxruide/wwwroot/Application/Runtime/Cache/Home/100cf57094a455fdc55644dc884744bf.php 第 87 行.
NOTIC: [8] Use of undefined constant type - assumed 'type' /www/webhost/sxruide/wwwroot/Application/Runtime/Cache/Home/100cf57094a455fdc55644dc884744bf.php 第 100 行.
NOTIC: [8] Use of undefined constant type - assumed 'type' /www/webhost/sxruide/wwwroot/Application/Runtime/Cache/Home/100cf57094a455fdc55644dc884744bf.php 第 100 行.
NOTIC: [8] Use of undefined constant type - assumed 'type' /www/webhost/sxruide/wwwroot/Application/Runtime/Cache/Home/100cf57094a455fdc55644dc884744bf.php 第 100 行.
NOTIC: [8] Use of undefined constant type - assumed 'type' /www/webhost/sxruide/wwwroot/Application/Runtime/Cache/Home/100cf57094a455fdc55644dc884744bf.php 第 100 行.
NOTIC: [8] Use of undefined constant type - assumed 'type' /www/webhost/sxruide/wwwroot/Application/Runtime/Cache/Home/100cf57094a455fdc55644dc884744bf.php 第 100 行.
NOTIC: [8] Use of undefined constant type - assumed 'type' /www/webhost/sxruide/wwwroot/Application/Runtime/Cache/Home/100cf57094a455fdc55644dc884744bf.php 第 100 行.
NOTIC: [8] Use of undefined constant type - assumed 'type' /www/webhost/sxruide/wwwroot/Application/Runtime/Cache/Home/100cf57094a455fdc55644dc884744bf.php 第 100 行.
NOTIC: [8] Use of undefined constant type - assumed 'type' /www/webhost/sxruide/wwwroot/Application/Runtime/Cache/Home/100cf57094a455fdc55644dc884744bf.php 第 100 行.
NOTIC: [8] Use of undefined constant type - assumed 'type' /www/webhost/sxruide/wwwroot/Application/Runtime/Cache/Home/100cf57094a455fdc55644dc884744bf.php 第 100 行.
NOTIC: [8] Use of undefined constant type - assumed 'type' /www/webhost/sxruide/wwwroot/Application/Runtime/Cache/Home/100cf57094a455fdc55644dc884744bf.php 第 100 行.
NOTIC: [8] Use of undefined constant type - assumed 'type' /www/webhost/sxruide/wwwroot/Application/Runtime/Cache/Home/100cf57094a455fdc55644dc884744bf.php 第 100 行.
NOTIC: [8] Use of undefined constant type - assumed 'type' /www/webhost/sxruide/wwwroot/Application/Runtime/Cache/Home/100cf57094a455fdc55644dc884744bf.php 第 100 行.
NOTIC: [8] Use of undefined constant type - assumed 'type' /www/webhost/sxruide/wwwroot/Application/Runtime/Cache/Home/100cf57094a455fdc55644dc884744bf.php 第 100 行.
NOTIC: [8] Use of undefined constant type - assumed 'type' /www/webhost/sxruide/wwwroot/Application/Runtime/Cache/Home/100cf57094a455fdc55644dc884744bf.php 第 100 行.
NOTIC: [8] Use of undefined constant type - assumed 'type' /www/webhost/sxruide/wwwroot/Application/Runtime/Cache/Home/100cf57094a455fdc55644dc884744bf.php 第 100 行.
NOTIC: [8] Use of undefined constant type - assumed 'type' /www/webhost/sxruide/wwwroot/Application/Runtime/Cache/Home/100cf57094a455fdc55644dc884744bf.php 第 113 行.
NOTIC: [8] Use of undefined constant type - assumed 'type' /www/webhost/sxruide/wwwroot/Application/Runtime/Cache/Home/100cf57094a455fdc55644dc884744bf.php 第 113 行.
NOTIC: [8] Use of undefined constant type - assumed 'type' /www/webhost/sxruide/wwwroot/Application/Runtime/Cache/Home/100cf57094a455fdc55644dc884744bf.php 第 113 行.
NOTIC: [8] Use of undefined constant type - assumed 'type' /www/webhost/sxruide/wwwroot/Application/Runtime/Cache/Home/100cf57094a455fdc55644dc884744bf.php 第 113 行.
NOTIC: [8] Use of undefined constant type - assumed 'type' /www/webhost/sxruide/wwwroot/Application/Runtime/Cache/Home/100cf57094a455fdc55644dc884744bf.php 第 113 行.
NOTIC: [8] Use of undefined constant type - assumed 'type' /www/webhost/sxruide/wwwroot/Application/Runtime/Cache/Home/100cf57094a455fdc55644dc884744bf.php 第 113 行.
NOTIC: [8] Use of undefined constant type - assumed 'type' /www/webhost/sxruide/wwwroot/Application/Runtime/Cache/Home/100cf57094a455fdc55644dc884744bf.php 第 113 行.
NOTIC: [8] Use of undefined constant type - assumed 'type' /www/webhost/sxruide/wwwroot/Application/Runtime/Cache/Home/100cf57094a455fdc55644dc884744bf.php 第 113 行.
NOTIC: [8] Use of undefined constant type - assumed 'type' /www/webhost/sxruide/wwwroot/Application/Runtime/Cache/Home/100cf57094a455fdc55644dc884744bf.php 第 113 行.
NOTIC: [8] Use of undefined constant type - assumed 'type' /www/webhost/sxruide/wwwroot/Application/Runtime/Cache/Home/100cf57094a455fdc55644dc884744bf.php 第 113 行.
NOTIC: [8] Use of undefined constant type - assumed 'type' /www/webhost/sxruide/wwwroot/Application/Runtime/Cache/Home/100cf57094a455fdc55644dc884744bf.php 第 113 行.
NOTIC: [8] Use of undefined constant type - assumed 'type' /www/webhost/sxruide/wwwroot/Application/Runtime/Cache/Home/100cf57094a455fdc55644dc884744bf.php 第 113 行.
NOTIC: [8] Use of undefined constant type - assumed 'type' /www/webhost/sxruide/wwwroot/Application/Runtime/Cache/Home/100cf57094a455fdc55644dc884744bf.php 第 113 行.
NOTIC: [8] Use of undefined constant type - assumed 'type' /www/webhost/sxruide/wwwroot/Application/Runtime/Cache/Home/100cf57094a455fdc55644dc884744bf.php 第 113 行.
NOTIC: [8] Use of undefined constant type - assumed 'type' /www/webhost/sxruide/wwwroot/Application/Runtime/Cache/Home/100cf57094a455fdc55644dc884744bf.php 第 113 行.
INFO: Run Behavior\ParseTemplateBehavior [ RunTime:0.017405s ]
INFO: [ view_parse ] --END-- [ RunTime:0.017516s ]
INFO: [ view_filter ] --START--
INFO: Run Behavior\WriteHtmlCacheBehavior [ RunTime:0.000221s ]
INFO: [ view_filter ] --END-- [ RunTime:0.000287s ]
INFO: [ app_end ] --START--
INFO: Run Behavior\ShowPageTraceBehavior [ RunTime:0.000396s ]
INFO: [ app_end ] --END-- [ RunTime:0.000456s ]

[ 2019-06-17T18:38:08+08:00 ] 18.237.120.199 /
INFO: [ app_init ] --START--
INFO: Run Behavior\BuildLiteBehavior [ RunTime:0.000019s ]
INFO: [ app_init ] --END-- [ RunTime:0.000368s ]
INFO: [ app_begin ] --START--
INFO: Run Behavior\ReadHtmlCacheBehavior [ RunTime:0.000389s ]
INFO: Run Behavior\CheckLangBehavior [ RunTime:0.000287s ]
INFO: [ app_begin ] --END-- [ RunTime:0.000788s ]
INFO: [ view_parse ] --START--
INFO: [ template_filter ] --START--
INFO: Run Behavior\ContentReplaceBehavior [ RunTime:0.000113s ]
INFO: [ template_filter ] --END-- [ RunTime:0.000179s ]
INFO: Run Behavior\ParseTemplateBehavior [ RunTime:0.015066s ]
INFO: [ view_parse ] --END-- [ RunTime:0.015130s ]
INFO: [ view_filter ] --START--
INFO: Run Behavior\WriteHtmlCacheBehavior [ RunTime:0.000152s ]
INFO: [ view_filter ] --END-- [ RunTime:0.000202s ]
INFO: [ app_end ] --START--
INFO: Run Behavior\ShowPageTraceBehavior [ RunTime:0.000382s ]
INFO: [ app_end ] --END-- [ RunTime:0.000444s ]

[ 2019-06-17T23:48:27+08:00 ] 54.36.148.90 /
INFO: [ app_init ] --START--
INFO: Run Behavior\BuildLiteBehavior [ RunTime:0.000031s ]
INFO: [ app_init ] --END-- [ RunTime:0.000548s ]
INFO: [ app_begin ] --START--
INFO: Run Behavior\ReadHtmlCacheBehavior [ RunTime:0.000487s ]
INFO: Run Behavior\CheckLangBehavior [ RunTime:0.000254s ]
INFO: [ app_begin ] --END-- [ RunTime:0.000895s ]
INFO: [ view_parse ] --START--
INFO: [ template_filter ] --START--
INFO: Run Behavior\ContentReplaceBehavior [ RunTime:0.000211s ]
INFO: [ template_filter ] --END-- [ RunTime:0.000346s ]
INFO: Run Behavior\ParseTemplateBehavior [ RunTime:0.018640s ]
INFO: [ view_parse ] --END-- [ RunTime:0.018757s ]
INFO: [ view_filter ] --START--
INFO: Run Behavior\WriteHtmlCacheBehavior [ RunTime:0.000296s ]
INFO: [ view_filter ] --END-- [ RunTime:0.000377s ]
INFO: [ app_end ] --START--
INFO: Run Behavior\ShowPageTraceBehavior [ RunTime:0.000675s ]
INFO: [ app_end ] --END-- [ RunTime:0.000765s ]

