[ 2019-01-12T02:32:58+08:00 ] 47.100.119.114 //admin/html/asp/dufang.aSP
INFO: [ app_init ] --START--
INFO: Run Behavior\BuildLiteBehavior [ RunTime:0.000018s ]
INFO: [ app_init ] --END-- [ RunTime:0.000354s ]
ERR: 无法加载控制器:Html

[ 2019-01-12T02:32:58+08:00 ] 47.100.119.114 //admin/html/asp/dufang.aSP
INFO: [ app_init ] --START--
INFO: Run Behavior\BuildLiteBehavior [ RunTime:0.000019s ]
INFO: [ app_init ] --END-- [ RunTime:0.000375s ]
ERR: 无法加载控制器:Html

[ 2019-01-12T02:32:58+08:00 ] 47.100.119.114 //admin/html/asp/dufang.aSP
INFO: [ app_init ] --START--
INFO: Run Behavior\BuildLiteBehavior [ RunTime:0.000018s ]
INFO: [ app_init ] --END-- [ RunTime:0.000353s ]
ERR: 无法加载控制器:Html

